{
    "10.1.1": 
    {
      "sound" : "BLA",
      "persian" : {
          "1" : {
              "text" : "اَگَر",
              "transscript" : "1",
              "translation" : "1" 
          }
      },
      "transscript" : {
          "1" : { 
              "text" : "'agar",
              "persian" : "1",
              "translation" : "1"
          }
      },
      "translation" : {
          "1" : {
              "text" : "wenn",
              "persian" : 1,
              "transscript" : 1
          }
      }
    }
}